[
  {
    "model": "auth.user",
    "pk": 1,
    "fields": {
      "password": "pbkdf2_sha256$260000$VtGYNlCCBNKgluhfXHUVct$WMO+J4koPSX/qDoBi0YZEzkvnJ8dk1qLLecuNgBrZ0U=",
      "last_login": null,
      "is_superuser": true,
      "username": "admin",
      "first_name": "",
      "last_name": "",
      "email": "",
      "is_staff": true,
      "is_active": true,
      "date_joined": "2021-11-29T19:34:07.015Z",
      "groups": [],
      "user_permissions": []
    }
  }
]
